<svg xmlns="http://www.w3.org/2000/svg" width="29.189" height="18.237" viewBox="0 0 29.189 18.237">
  <g id="Grupo_39" data-name="Grupo 39" transform="translate(-1303.666 -718.97)">
    <path id="Trazado_160" data-name="Trazado 160" d="M1331.994,721.026c.235-.04.3.1.352.354a7.622,7.622,0,0,1-.27,1.8c-1.269,4.829-2.24,8.52-3.51,13.349-4.072-.012-8.205.107-12.278.095,1.253-4.873,2.09-9.677,3.3-14.543a1,1,0,0,1,.958-.777c3.562-.035,8.153-.272,11.614-.283" fill="none" stroke="#ff9000" stroke-miterlimit="10" stroke-width="0.934"/>
    <path id="Trazado_161" data-name="Trazado 161" d="M1322.752,721.266c-.6.008-3.061-.068-3.969.022-.08.008-.165.442-.2.546q-1.937,6.627-3.872,13.252c-.011.035.036,0,0,0-2.964-.006-6.006.046-8.97.039a.937.937,0,0,0-.646,1.058.871.871,0,0,0,.554.548c3.175-.046,7.177-.062,10.352-.107" fill="none" stroke="#ff9000" stroke-miterlimit="10" stroke-width="0.949"/>
    <path id="Trazado_162" data-name="Trazado 162" d="M1306.409,725.71v7.627l5.06.029a1,1,0,0,0,1-1v-6.673c-1.981-.011-4.551-.015-6.532-.027" fill="none" stroke="#ff9000" stroke-miterlimit="10" stroke-width="0.952"/>
    <path id="Trazado_163" data-name="Trazado 163" d="M1306.409,727.348a2.792,2.792,0,0,0-2.248,1.779c-.179,1.037,1.032,2.12,2.248,2.329" fill="none" stroke="#ff9000" stroke-miterlimit="10" stroke-width="0.949"/>
    <path id="Trazado_164" data-name="Trazado 164" d="M1306.409,730.9" fill="none" stroke="#ff9000" stroke-miterlimit="10" stroke-width="0.949"/>
    <path id="Trazado_165" data-name="Trazado 165" d="M1306.332,727.705" fill="none" stroke="#ff9000" stroke-miterlimit="10" stroke-width="0.949"/>
    <path id="Trazado_166" data-name="Trazado 166" d="M1310.024,724.313a1.383,1.383,0,0,0,.28-.378,1.242,1.242,0,0,0-.082-.892,3.984,3.984,0,0,1-.4-1.748,1.534,1.534,0,0,1,.811-.991,2.247,2.247,0,0,0-.3,1.4c.031.218.073.223.2.729.161.653.239.985.135,1.253A1.139,1.139,0,0,1,1310.024,724.313Z" fill="none" stroke="#ff9000" stroke-miterlimit="10" stroke-width="0.949"/>
    <path id="Trazado_167" data-name="Trazado 167" d="M1307.617,724.6a.942.942,0,0,0,.163-.271c.053-.2-.087-.346-.2-.476-.386-.435-.579-.653-.582-.88,0-.159.083-.4.489-.727a.981.981,0,0,0-.021.838c.059.115.093.108.269.361.227.326.34.492.3.663A.909.909,0,0,1,1307.617,724.6Z" fill="none" stroke="#ff9000" stroke-miterlimit="10" stroke-width="0.949"/>
    <path id="Trazado_168" data-name="Trazado 168" d="M1311.538,723.179" fill="none" stroke="#ff9000" stroke-miterlimit="10" stroke-width="0.949"/>
    <path id="Trazado_169" data-name="Trazado 169" d="M1311.538,723.434" fill="none" stroke="#ff9000" stroke-miterlimit="10" stroke-width="0.949"/>
    <ellipse id="Elipse_30" data-name="Elipse 30" cx="1.531" cy="0.553" rx="1.531" ry="0.553" transform="translate(1323.876 730.054) rotate(-82.669)" fill="#364250" stroke="#ff9000" stroke-width="1"/>
  </g>
</svg>
