<svg xmlns="http://www.w3.org/2000/svg" width="30.109" height="21.55" viewBox="0 0 30.109 21.55">
  <g id="Grupo_38" data-name="Grupo 38" transform="translate(-1119.029 -520.025)">
    <path id="Trazado_157" data-name="Trazado 157" d="M1119.529,539.589c2.238,1.981,14.276,1.981,16.514,0h0a5.4,5.4,0,0,0-5.234-5.559h-6.047a5.4,5.4,0,0,0-5.233,5.559Z" fill="none" stroke="#ff9000" stroke-linecap="round" stroke-linejoin="round" stroke-width="1"/>
    <circle id="Elipse_29" data-name="Elipse 29" cx="3.871" cy="3.871" r="3.871" transform="translate(1123.915 524.045)" stroke-width="1" stroke="#ff9000" stroke-linecap="round" stroke-linejoin="round" fill="none"/>
    <path id="Trazado_158" data-name="Trazado 158" d="M1133.848,520.525h14.79v10H1133.98Z" fill="none" stroke="#ff9000" stroke-linecap="round" stroke-linejoin="round" stroke-width="1"/>
    <g id="Grupo_37" data-name="Grupo 37">
      <line id="Línea_4" data-name="Línea 4" x1="1.231" y2="13.817" transform="translate(1138.842 525.963)" fill="none" stroke="#ff9000" stroke-linecap="round" stroke-linejoin="round" stroke-width="1"/>
    </g>
    <path id="Trazado_159" data-name="Trazado 159" d="M1137.138,523.213h8.375" fill="none" stroke="#ff9000" stroke-linecap="round" stroke-linejoin="round" stroke-width="1"/>
  </g>
</svg>
